…
city_glm
```

    ## # A tibble: 47 x 4
    ##    city_state         OR CI.low CI.high
    ##    <chr>           <dbl>  <dbl>   <dbl>
    ##  1 Albuquerque, NM 0.686 0.416    1.12 
    ##  2 Atlanta, GA     0.767 0.433    1.32 
    ##  3 Baltimore, MD   0.453 0.321    0.636
    ##  4 Baton Rouge, LA 0.656 0.299    1.38 
    ##  5 Birmingham, AL  1.05  0.619    1.76 
    ##  6 Boston, MA      0.121 0.0447   0.272
    ##  7 Buffalo, NY     0.447 0.243    0.811
    ##  8 Charlotte, NC   0.555 0.318    0.931
    ##  9 Chicago, IL     0.575 0.442    0.751
    ## 10 Cincinnati, OH  0.327 0.186    0.554
    ## # ... with 37 more rows
…
